{
  "type": "service_account",
  "project_id": "gesto-qa",
  "private_key_id": "dc1e6de3a2821b798fcdae9fd48a5317279d9bd0",
  "private_key": "-----BEGIN PRIVATE KEY-----\nMIIEuwIBADANBgkqhkiG9w0BAQEFAASCBKUwggShAgEAAoIBAQC9XiHXPPK61y66\n9EVRKRdzOHoFMMC+c0hlDockUsSoG+wDdeOdEeNc+UOZKOnusRqLWpBDXH7LkU/S\ni0QkRwzLL5+SgJ2h0rIb3TQnjMWeovTi4m7y+QYxXdaZKTiN+yN4x9gpYuI2YzLS\nocgGdPJkqmb1Gk3pJx9pe1ns0nS6kF7CkRmKwS1TcPk0n4lyM8D1PPu6WupNbUEf\n9QgkWCqRQjiR88VaHVGH38BpVk67EhAKImkS38Nz8eIa86UWJC/2vg22r9gI6w0Q\nYEOkx2+eojrYd69I3m62+LAwn4BnKvSoV7XjKBzw6tLq6X1kTfHCpOXsgHop2Pwx\nPmIBWn3dAgMBAAECgf8y2tS7uOJ2ytMB4he7dA2YI9KhEjaw7sTCXuRsHM4zV0xK\noZ4+0E7+6PH+b75jG6zFP8z+ShjDEoMdR8lE9M+6wU9ZSLEMhEjQstcOx/9KWvjo\n9WZWWgoPt+Opvigx+P/Nr92dP7EAaiN77XaKRV3TKu/7YtUJiDgnW7kKoHo4n5Wh\nPP5UD/l4BaLXVzSs7I0L+3e4FGcanBA3fT1JkqIZNPqZ4Yy3ASapNrcH4nqM7p07\nphVdE183RzJdebIodulIjlaSKjZ6Wh0u6nKbmvPqEvaekCauQwdcSwlz2/JBLxdA\nX7CoZzlK3zWMeLlpZOV3e2PCrxjLoDzPJVE05pECgYEA+autcf59pWknyaAMI6Fq\ndsZlYSNUeI9JeE/UWqHBtuSM3BVvjoyc6zzwybynjTAmG4i9LjaxY4MHxzQmUHej\npfoaaD9WmQsmcAXHMEdcztBxG5Ghkb9sUvczQM7HNC3uffVdSfGeCQU8s6CPorFA\nuaV18ZVCt8891hnJmfvPdg0CgYEAwisZMCS5jz8C+hjZ+NbRwXKsumwG6/Bc4Ltz\nsSJ49V0+2QMWvH8af73wWzur7YlkXCcMi82f/+cL8Wh9C4LoiuzvhzRPz65mP9Gz\nlZqoxff7lbZyboyQDGYi6GqcKkmB7SpELmLDTdbYAcwBVRVJgxrX+9DqgjKtpO/c\nkpQXgxECgYAF6KE3NG2mz4FIjUgcQ8KwQuu9S8fA/qsfdMwyxOc/u9L1lnBIcF16\nV7vfGl7gwYX1WtwXTuYN09kIRtytRNeTowKi+vTCtHfZaNmY8+dnYZl7rIulVmFq\n6TzGSN6ABqJBSuBFUrmJvxz7p04e7JD6k8bhy8WDch0lhwC1azcytQKBgCsInEuE\nSDAMWh+N9HlnOxPx04B5wsr1+c/BG/INXtuar/wu6BIc5YWcVjISNpet1LVr3ib6\nCtUPoyD89IHhoKJxwuCnYmz4DSdl1bR5k6BUxsi2qAQCWUa2OFRklHn20rn6nSPe\ntcSBslwrl7wAvMs23tmrwt3aV4vvsWY3NkLRAoGBAL9H+5qcQAvKV4JYTCDFkT/H\n+kkSPGsjwJZ6Y1JmD5kJJ6pGj14UUJqAW79rEKy6R89WKy8TpctcXv7TcwJhGwb6\nBdpY9mBtPFANxIhdTIOJ9BRgVoHqRdpkzmJ6tqWomMMhmD321iPZJmuUsE2NsLXa\n6J1vG+YCLM+OyZt/jG2w\n-----END PRIVATE KEY-----\n",
  "client_email": "machine-learning-qa@gesto-qa.iam.gserviceaccount.com",
  "client_id": "109274271782847041754",
  "auth_uri": "https://accounts.google.com/o/oauth2/auth",
  "token_uri": "https://oauth2.googleapis.com/token",
  "auth_provider_x509_cert_url": "https://www.googleapis.com/oauth2/v1/certs",
  "client_x509_cert_url": "https://www.googleapis.com/robot/v1/metadata/x509/machine-learning-qa%40gesto-qa.iam.gserviceaccount.com"
}
